{"q":"vue","page":1,"type":"user","total_count":49,"per_page":10,"total_pages":5,"order_by":"default","entries":[{"id":5006099,"nickname":"vue_","avatar_url":"http://upload.jianshu.io/users/upload_avatars/5006099/b7f2b3b42ce5.jpg","slug":"bb10623881e0","followed":false,"total_wordage":0,"public_notes_count":0,"total_likes_count":0,"followers_count":15,"following_users_count":2},{"id":401603,"nickname":"Vue","avatar_url":"http://cdn2.jianshu.io/assets/default_avatar/6-fd30f34c8641f6f32f5494df5d6b8f3c.jpg","slug":"a2e6ad77f181","followed":false,"total_wordage":0,"public_notes_count":0,"total_likes_count":0,"followers_count":33,"following_users_count":21},{"id":13874069,"nickname":"vue皮皮","avatar_url":"http://cdn2.jianshu.io/assets/default_avatar/14-0651acff782e7a18653d7530d6b27661.jpg","slug":"301cc121c4b0","followed":false,"total_wordage":0,"public_notes_count":0,"total_likes_count":0,"followers_count":2,"following_users_count":9},{"id":5683394,"nickname":"vue_68a9","avatar_url":"http://upload.jianshu.io/users/upload_avatars/5683394/3bfd5cf9-561f-4467-b24a-e6fcf13d7059","slug":"c2fa1f1cc790","followed":false,"total_wordage":0,"public_notes_count":0,"total_likes_count":0,"followers_count":2,"following_users_count":1},{"id":6913819,"nickname":"vue_er","avatar_url":"http://cdn2.jianshu.io/assets/default_avatar/10-e691107df16746d4a9f3fe9496fd1848.jpg","slug":"f34c1a9cae3d","followed":false,"total_wordage":0,"public_notes_count":0,"total_likes_count":0,"followers_count":4,"following_users_count":0},{"id":8493227,"nickname":"vue爱好者","avatar_url":"http://upload.jianshu.io/users/upload_avatars/8493227/47032f98-5980-4dac-b312-97b612434789","slug":"44d658f852ef","followed":false,"total_wordage":741,"public_notes_count":15,"total_likes_count":0,"followers_count":0,"following_users_count":9},{"id":2147662,"nickname":"vue_ueser_liao","avatar_url":"http://cdn2.jianshu.io/assets/default_avatar/7-0993d41a595d6ab6ef17b19496eb2f21.jpg","slug":"2ed787c731e6","followed":false,"total_wordage":0,"public_notes_count":0,"total_likes_count":0,"followers_count":3,"following_users_count":1},{"id":13251867,"nickname":"郑vue","avatar_url":"http://upload.jianshu.io/users/upload_avatars/13251867/3f61c4a9-4098-4aaa-b8ec-b37ef623aa19","slug":"63f3220f8fa0","followed":false,"total_wordage":0,"public_notes_count":0,"total_likes_count":0,"followers_count":3,"following_users_count":16},{"id":4028198,"nickname":"我的Vue","avatar_url":"http://cdn2.jianshu.io/assets/default_avatar/4-3397163ecdb3855a0a4139c34a695885.jpg","slug":"3b77db410e5e","followed":false,"total_wordage":0,"public_notes_count":0,"total_likes_count":0,"followers_count":2,"following_users_count":0},{"id":14969303,"nickname":"agu_vue","avatar_url":"http://upload.jianshu.io/users/upload_avatars/14969303/286ab14b-0dac-4de3-9495-e0703e43b876","slug":"acb415ebd8d8","followed":false,"total_wordage":0,"public_notes_count":0,"total_likes_count":0,"followers_count":0,"following_users_count":12}],"related_users":[],"more_related_users":null,"related_collections":[],"more_related_collections":null}