{"q":"vue","page":1,"type":"collection","total_count":863,"per_page":10,"total_pages":87,"order_by":"default","entries":[{"id":229010,"slug":"4652107a7847","title":"Vue.js 资料","image_url":"http://upload.jianshu.io/collections/images/229010/logo.png","content":"<p>收集Vue文章，资料，和社区问题。社区问题会整理最佳回答和笔者的一些见解。\n<br />欢迎投稿。</p>\n\n<p>qq群：240319632</p>","subscribed":false,"public_notes_count":135,"likes_count":7426},{"id":276096,"slug":"c24e81b7970b","title":"Vue.js专区","image_url":"http://upload.jianshu.io/collections/images/276096/logo.png","content":"<p>vue.js爱好者集结地，讨论、分享、问答、收录、搜集关于vue的技术问题，尊重每一个用心学习和写作的人</p>","subscribed":false,"public_notes_count":1094,"likes_count":4264},{"id":226506,"slug":"7c5a95f65440","title":"前端进阶之路","image_url":"http://upload.jianshu.io/collections/images/226506/Unofficial_JavaScript_logo_2.svg.png","content":"<p>收录与 Web 前端开发相关的文章，包括但不限于 CSS、JavaScript、Node.js、Vue.js、React.js 等</p>","subscribed":false,"public_notes_count":219,"likes_count":3134},{"id":355747,"slug":"22c0d54ed228","title":"Vue.js开发技巧","image_url":"http://upload.jianshu.io/collections/images/355747/j2MRZv.png","content":"<p>收集Vue.js开发技巧文章，资料。</p>\n\n<p>vue知识学习，分享，传播，交流，探讨，使用Vue及其应用。</p>\n\n<p>Vue.js是一套构建用户界面的渐进式框架。与其他重量级框架不同的是，Vue 采用自底向上增量开发的设计。Vue 的核心库只关注视图层，并且非常容易学习，非常容易与其它库或已有项目整合。另一方面，Vue 完全有能力驱动采用单文件组件和Vue生态系统支持的库开发的复杂单页</p>","subscribed":false,"public_notes_count":643,"likes_count":2890},{"id":247667,"slug":"598cf0ac363b","title":"H5技术栈","image_url":"http://upload.jianshu.io/collections/images/247667/20140712111702806.jpg","content":"<p>汇聚HTML、CSS、JS、NG、RN、VUE等前端技术的教程文集，欢迎各位大神投稿。我们热衷于分享技术，创造成就感。</p>","subscribed":false,"public_notes_count":143,"likes_count":1317},{"id":272942,"slug":"1ae0e7b4c3d1","title":"Vue.js","image_url":"http://upload.jianshu.io/collections/images/272942/logo%E5%89%AF%E6%9C%AC.png","content":"<p>Vue.js（读音 /vjuː/, 类似于 view） 是一套构建用户界面的 渐进式框架。与其他重量级框架不同的是，Vue 采用自底向上增量开发的设计。Vue 的核心库只关注视图层，并且非常容易学习，非常容易与其它库或已有项目整合。另一方面，Vue 完全有能力驱动采用单文件组件和 Vue 生态系统支持的库开发的复杂单页应用。\n<br />Vue.js 的目标是通过尽可能简单的 API 实现响应的数据绑定和组合的视图组件。</p>","subscribed":false,"public_notes_count":614,"likes_count":978},{"id":333515,"slug":"de995678ae72","title":"vue+webpack项目实战开发","image_url":"http://upload.jianshu.io/collections/images/333515/20151028172904729.jpg","content":"<p>通过实战学习vue.js及webpack的使用</p>","subscribed":false,"public_notes_count":84,"likes_count":995},{"id":362870,"slug":"e72f86d5812a","title":"前端Vue专辑","image_url":"http://upload.jianshu.io/collections/images/362870/logo.png","content":"<p>vue.js爱好者集结地，讨论、分享、问答、收录、搜集关于vue的技术问题</p>","subscribed":false,"public_notes_count":427,"likes_count":707},{"id":234209,"slug":"d064935a2d52","title":"Ruby & Rails","image_url":"http://upload.jianshu.io/collections/images/234209/5e9c9d9197266249bd15d83ac17bb13d.jpg","content":"<p>The Rails Stack ... \n<br />Ruby、Ruby on Rails、Sql、React、Vue ?</p>","subscribed":false,"public_notes_count":126,"likes_count":460},{"id":297154,"slug":"729b80a71fcd","title":"大前端-万物皆可JS","image_url":"http://upload.jianshu.io/collections/images/297154/2.jpg","content":"<p>Vue,React,React-native,Weex,webpack,gulp等等前沿的前端技术,分享一些前端工作经验积累,学习心得,欢迎大家投稿,QQ群:472051064</p>","subscribed":false,"public_notes_count":37,"likes_count":617}],"related_users":[],"more_related_users":null,"related_collections":[],"more_related_collections":null}