{"q":"vue","page":1,"type":"note","total_count":34235,"per_page":10,"total_pages":100,"order_by":"default","entries":[{"id":38994096,"title":"<em class='search-result-highlight'>vue</em> 常用插件","slug":"050124929a18","content":"……UI组件 element- 饿了么出品的Vue2的web UI工具套件 Vux- 基于<em class='search-result-highlight'>Vue</em>和WeUI的组件库 mint-ui- <em class='search-result-highlight'>Vue</em> 2的移动UI元素 iview- 基于 Vuejs 的开源…… UI 组件库 Keen-UI- 轻量级的基本UI组件合集 <em class='search-result-highlight'>vue</em>-material- 通过<em class='search-result-highlight'>Vue</em> Material和<em class='search-result-highlight'>Vue</em> 2建立精美的app应用 muse-ui- 三端样式一致的响应式 UI 库…… vuetify- 为移动而生的<em class='search-result-highlight'>Vue</em> JS 2组件框架 vonic- 快速构建移动端单页应用 eme- 优雅的Markdown编辑器 <em class='search-result-highlight'>vue</em>-multiselect- <em class='search-result-highlight'>Vue</em>.js选择框解决方案 <em class='search-result-highlight'>vue</em>……","user":{"id":9258092,"nickname":"柴东啊","slug":"b12edbd50b30","avatar_url":"http://cdn2.jianshu.io/assets/default_avatar/6-fd30f34c8641f6f32f5494df5d6b8f3c.jpg"},"notebook":{"id":31562437,"name":"vue"},"commentable":true,"public_comments_count":0,"likes_count":12,"views_count":562,"total_rewards_count":0,"first_shared_at":"2018-12-27T06:05:40.000Z"},{"id":22799994,"title":"<em class='search-result-highlight'>VUE</em>插件总结","slug":"3c5fef687fb1","content":"……UI组件 element- 饿了么出品的Vue2的web UI工具套件 Vux- 基于<em class='search-result-highlight'>Vue</em>和WeUI的组件库 mint-ui- <em class='search-result-highlight'>Vue</em> 2的移动UI元素 iview- 基于 Vuejs 的开源…… UI 组件库 Keen-UI- 轻量级的基本UI组件合集 <em class='search-result-highlight'>vue</em>-material- 通过<em class='search-result-highlight'>Vue</em> Material和<em class='search-result-highlight'>Vue</em> 2建立精美的app应用 muse-ui- 三端样式一致的响应式 UI 库…… vuetify- 为移动而生的<em class='search-result-highlight'>Vue</em> JS 2组件框架 vonic- 快速构建移动端单页应用 eme- 优雅的Markdown编辑器 <em class='search-result-highlight'>vue</em>-multiselect- <em class='search-result-highlight'>Vue</em>.js选择框解决方案 <em class='search-result-highlight'>vue</em>……","user":{"id":10186381,"nickname":"你猜_3214","slug":"af260d03e376","avatar_url":"http://upload.jianshu.io/users/upload_avatars/10186381/14305591-7e4d-4477-a541-2c2eeaa585d1"},"notebook":{"id":21314759,"name":"日记本"},"commentable":true,"public_comments_count":0,"likes_count":68,"views_count":4478,"total_rewards_count":0,"first_shared_at":"2018-03-11T12:30:53.000Z"},{"id":26866546,"title":"<em class='search-result-highlight'>VUE</em>组件库","slug":"a8f3c6322f52","content":"……UI组件 element- 饿了么出品的Vue2的web UI工具套件 Vux- 基于<em class='search-result-highlight'>Vue</em>和WeUI的组件库 mint-ui- <em class='search-result-highlight'>Vue</em> 2的移动UI元素 iview- 基于 Vuejs 的开源…… UI 组件库 Keen-UI- 轻量级的基本UI组件合集 <em class='search-result-highlight'>vue</em>-material- 通过<em class='search-result-highlight'>Vue</em> Material和<em class='search-result-highlight'>Vue</em> 2建立精美的app应用 muse-ui- 三端样式一致的响应式 UI 库…… vuetify- 为移动而生的<em class='search-result-highlight'>Vue</em> JS 2组件框架 vonic- 快速构建移动端单页应用 eme- 优雅的Markdown编辑器 <em class='search-result-highlight'>vue</em>-multiselect- <em class='search-result-highlight'>Vue</em>.js选择框解决方案 <em class='search-result-highlight'>vue</em>……","user":{"id":11026634,"nickname":"王喂马_","slug":"13393dcdd5dd","avatar_url":"http://upload.jianshu.io/users/upload_avatars/11026634/e11aa1fa-b4fc-4632-b169-259016b9543f.jpg"},"notebook":{"id":23077942,"name":"技术分享"},"commentable":true,"public_comments_count":0,"likes_count":31,"views_count":1223,"total_rewards_count":0,"first_shared_at":"2018-04-19T07:21:52.000Z"},{"id":16694378,"title":"<em class='search-result-highlight'>Vue</em>开源项目库汇总","slug":"e24dbbcc37de","content":"……最近做了一个<em class='search-result-highlight'>Vue</em>开源项目库汇总，里面集合了OpenDigg 上的优质的<em class='search-result-highlight'>Vue</em>开源项目库，方便移动开发人员便捷的找到自己需要的项目工具等，感兴趣的可以到GitHub上给个star。 UI组件…… element ★9305 - 饿了么出品的Vue2的web UI工具套件Vux ★6802 - 基于<em class='search-result-highlight'>Vue</em>和WeUI的组件库mint-ui ★4776 - <em class='search-result-highlight'>Vue</em> 2的移动UI元素iview ★4458…… - 基于 Vuejs 的开源 UI 组件库Keen-UI ★2363 - 轻量级的基本UI组件合集<em class='search-result-highlight'>vue</em>-material ★2207 - 通过<em class='search-result-highlight'>Vue</em> Material和<em class='search-result-highlight'>Vue</em> 2建立精美的app应用……","user":{"id":5233502,"nickname":"饥人谷_米弥轮","slug":"3aec3eabd8cf","avatar_url":"http://cdn2.jianshu.io/assets/default_avatar/10-e691107df16746d4a9f3fe9496fd1848.jpg"},"notebook":{"id":10867537,"name":"随笔"},"commentable":true,"public_comments_count":0,"likes_count":10,"views_count":506,"total_rewards_count":0,"first_shared_at":"2017-09-04T20:44:02.000Z"},{"id":29718396,"title":"<em class='search-result-highlight'>Vue</em>开源项目库汇总","slug":"8793b3055598","content":"……最近做了一个<em class='search-result-highlight'>Vue</em>开源项目库汇总，里面集合了OpenDigg上的优质的<em class='search-result-highlight'>Vue</em>开源项目库，方便移动开发人员便捷的找到自己需要的项目工具等，感兴趣的可以到GitHub上给个star。 UI组件…… element★9305 - 饿了么出品的Vue2的web UI工具套件 Vux★6802 - 基于<em class='search-result-highlight'>Vue</em>和WeUI的组件库 mint-ui★4776 - <em class='search-result-highlight'>Vue</em> 2的移动UI元素 iview★4458…… - 基于 Vuejs 的开源 UI 组件库 Keen-UI★2363 - 轻量级的基本UI组件合集 <em class='search-result-highlight'>vue</em>-material★2207 - 通过<em class='search-result-highlight'>Vue</em> Material和<em class='search-result-highlight'>Vue</em> 2建立精美的app应用……","user":{"id":12776663,"nickname":"知末随未","slug":"ad5d848cc749","avatar_url":"http://upload.jianshu.io/users/upload_avatars/12776663/dae2702a-d7b1-4120-8995-2ad2f97987c2.jpg"},"notebook":{"id":26766614,"name":"随笔"},"commentable":true,"public_comments_count":0,"likes_count":10,"views_count":546,"total_rewards_count":0,"first_shared_at":"2018-09-28T13:24:38.000Z"},{"id":34823304,"title":"<em class='search-result-highlight'>vue</em> 插件集合","slug":"ea0b744e8eb4","content":"……UI组件 element - 饿了么出品的Vue2的web UI工具套件 Vux - 基于<em class='search-result-highlight'>Vue</em>和WeUI的组件库 mint-ui - <em class='search-result-highlight'>Vue</em> 2的移动UI元素 iview - 基于 Vuejs 的……开源 UI 组件库 Keen-UI - 轻量级的基本UI组件合集 <em class='search-result-highlight'>vue</em>-material - 通过<em class='search-result-highlight'>Vue</em> Material和<em class='search-result-highlight'>Vue</em> 2建立精美的app应用 muse-ui - 三端样式一致的响应式…… UI 库 vuetify - 为移动而生的<em class='search-result-highlight'>Vue</em> JS 2组件框架 vonic - 快速构建移动端单页应用 eme - 优雅的Markdown编辑器 <em class='search-result-highlight'>vue</em>-multiselect - <em class='search-result-highlight'>Vue</em>.js……","user":{"id":13184138,"nickname":"polic_d","slug":"2a7bcf784de5","avatar_url":"http://upload.jianshu.io/users/upload_avatars/13184138/d0e0cce2-d020-47f2-8fa6-8639f2d56561.jpg"},"notebook":{"id":27657147,"name":"好文摘录"},"commentable":true,"public_comments_count":1,"likes_count":29,"views_count":714,"total_rewards_count":0,"first_shared_at":"2018-10-06T06:12:31.000Z"},{"id":36684725,"title":"<em class='search-result-highlight'>vue</em>常用组件插件","slug":"aaf3d960ddc0","content":"……UI组件 element- 饿了么出品的Vue2的web UI工具套件 Vux- 基于<em class='search-result-highlight'>Vue</em>和WeUI的组件库 mint-ui- <em class='search-result-highlight'>Vue</em> 2的移动UI元素 iview- 基于 Vuejs 的开源…… UI 组件库 Keen-UI- 轻量级的基本UI组件合集 <em class='search-result-highlight'>vue</em>-material- 通过<em class='search-result-highlight'>Vue</em> Material和<em class='search-result-highlight'>Vue</em> 2建立精美的app应用 muse-ui- 三端样式一致的响应式 UI 库…… vuetify- 为移动而生的<em class='search-result-highlight'>Vue</em> JS 2组件框架 vonic- 快速构建移动端单页应用 eme- 优雅的Markdown编辑器 <em class='search-result-highlight'>vue</em>-multiselect- <em class='search-result-highlight'>Vue</em>.js选择框解决方案 <em class='search-result-highlight'>vue</em>……","user":{"id":4729262,"nickname":"小姜先森o0O","slug":"dcfd72b8e494","avatar_url":"http://upload.jianshu.io/users/upload_avatars/4729262/9dd2831e-6be6-483c-bd37-8664f0e4df34"},"notebook":{"id":9813961,"name":"随笔"},"commentable":true,"public_comments_count":0,"likes_count":12,"views_count":442,"total_rewards_count":0,"first_shared_at":"2018-11-13T07:04:03.000Z"},{"id":39952124,"title":"<em class='search-result-highlight'>vue</em>插件汇总","slug":"3147c5b76f15","content":"……一、UI组件及框架 element - 饿了么出品的Vue2的web UI工具套件mint-ui - <em class='search-result-highlight'>Vue</em> 2的移动UI元素iview - 基于 Vuejs 的开源 UI 组件库Keen-UI…… - 轻量级的基本UI组件合集<em class='search-result-highlight'>vue</em>-material - 通过<em class='search-result-highlight'>Vue</em> Material和<em class='search-result-highlight'>Vue</em> 2建立精美的app应用muse-ui - 三端样式一致的响应式 UI 库vuetify - 为移动而生的……<em class='search-result-highlight'>Vue</em> JS 2组件框架vonic - 快速构建移动端单页应用<em class='search-result-highlight'>vue</em>-blu - 帮助你轻松创建web应用<em class='search-result-highlight'>vue</em>-multiselect - <em class='search-result-highlight'>Vue</em>.js选择框解决方案VueCircleMenu……","user":{"id":13886100,"nickname":"尹先生code","slug":"454091ae5a9b","avatar_url":"http://upload.jianshu.io/users/upload_avatars/13886100/f3628401-de00-4cac-9cb0-3533e8977898"},"notebook":{"id":29116504,"name":"日记本"},"commentable":true,"public_comments_count":0,"likes_count":2,"views_count":135,"total_rewards_count":0,"first_shared_at":"2019-01-14T12:57:55.000Z"},{"id":28677411,"title":"后盾网<em class='search-result-highlight'>Vue</em>视频教程 向军<em class='search-result-highlight'>Vue</em>基础教程 共86课","slug":"b60967e6db8b","content":"……1、向军老师<em class='search-result-highlight'>Vue</em>开发宝典-<em class='search-result-highlight'>Vue</em>.js介绍.mp4 2、向军老师<em class='search-result-highlight'>Vue</em>开发宝典-创建第一个应用.mp4 3、向军老师<em class='search-result-highlight'>Vue</em>开发宝典-操作元素属性.mp4 4、向军老师<em class='search-result-highlight'>Vue</em>开发宝典……-Mustache与v-once使用.mp4 5、向军老师<em class='search-result-highlight'>Vue</em>开发宝典-v-text与v-html的使用.mp4 6、向军老师<em class='search-result-highlight'>Vue</em>开发宝典-内容与属性中使用javascript表达式的方法.mp4 7、向军老师……<em class='search-result-highlight'>Vue</em>开发宝典-非常实用的计算属性computed实例讲解.mp4 8、向军老师<em class='search-result-highlight'>Vue</em>开发宝典-解决phpstorm不识别ECMASCRIPT6语法的问题.mp4 9、向军老师<em class='search-result-highlight'>Vue</em>开发宝典-watch……","user":{"id":12397559,"nickname":"凌云社区_前端F","slug":"d5cf82498270","avatar_url":"http://cdn2.jianshu.io/assets/default_avatar/9-cceda3cf5072bcdd77e8ca4f21c40998.jpg"},"notebook":{"id":25967164,"name":"Dmz社区[Www.DmzSheQu.Com]"},"commentable":true,"public_comments_count":0,"likes_count":9,"views_count":1221,"total_rewards_count":0,"first_shared_at":"2018-05-27T13:56:50.000Z"},{"id":35101496,"title":"【视频分享】尚硅谷HTML5前端视频_<em class='search-result-highlight'>Vue</em>核心技术&&<em class='search-result-highlight'>Vue</em>项目实战","slug":"545d607e27a5","content":"……尚硅谷HTML5前端视频_<em class='search-result-highlight'>Vue</em>核心技术&&<em class='search-result-highlight'>Vue</em>项目实战 本视频基于Vue2.5录制, 涵盖<em class='search-result-highlight'>Vue</em>开发所需技术: 模板、数据绑定、声明式渲染、计算属性、事件处理、过渡动画、指令、自定义<em class='search-result-highlight'>Vue</em>插件……、组件化开发、组件间通信、Ajax前后台交互、<em class='search-result-highlight'>Vue</em>-Router 等. 对数据代理、模板解析、数据劫持、数据绑定核心部分进行深入的源码分析 。视频中也涵盖<em class='search-result-highlight'>Vue</em>状态管理库Vuex的具体使用和原理结构……分析。——尚硅谷官网 一、尚硅谷HTML5前端视频_<em class='search-result-highlight'>Vue</em>核心技术视频 课程目录:00_视频_源代码01_尚硅谷_<em class='search-result-highlight'>Vue</em>_介绍.avi02_尚硅谷_<em class='search-result-highlight'>Vue</em>_基本使用.avi03_尚硅谷_<em class='search-result-highlight'>Vue</em>_模板语法……","user":{"id":12555954,"nickname":"石扒皮java栈点","slug":"66bf5a043f59","avatar_url":"http://upload.jianshu.io/users/upload_avatars/12555954/b77ba6b9-b2d6-4631-b6ed-f0d4684ab9ea.jpg"},"notebook":{"id":30102797,"name":"资源分享"},"commentable":true,"public_comments_count":0,"likes_count":5,"views_count":864,"total_rewards_count":0,"first_shared_at":"2018-10-12T11:46:09.000Z"}],"related_users":[{"id":5006099,"avatar_url":"http://upload.jianshu.io/users/upload_avatars/5006099/b7f2b3b42ce5.jpg","nickname":"vue_","slug":"bb10623881e0","total_wordage":0,"total_likes_count":0},{"id":401603,"avatar_url":"http://cdn2.jianshu.io/assets/default_avatar/6-fd30f34c8641f6f32f5494df5d6b8f3c.jpg","nickname":"Vue","slug":"a2e6ad77f181","total_wordage":0,"total_likes_count":0},{"id":13874069,"avatar_url":"http://cdn2.jianshu.io/assets/default_avatar/14-0651acff782e7a18653d7530d6b27661.jpg","nickname":"vue皮皮","slug":"301cc121c4b0","total_wordage":0,"total_likes_count":0}],"more_related_users":true,"related_collections":[{"id":229010,"title":"Vue.js 资料","slug":"4652107a7847","image_url":"http://upload.jianshu.io/collections/images/229010/logo.png","public_notes_count":135,"likes_count":7426},{"id":276096,"title":"Vue.js专区","slug":"c24e81b7970b","image_url":"http://upload.jianshu.io/collections/images/276096/logo.png","public_notes_count":1094,"likes_count":4264},{"id":226506,"title":"前端进阶之路","slug":"7c5a95f65440","image_url":"http://upload.jianshu.io/collections/images/226506/Unofficial_JavaScript_logo_2.svg.png","public_notes_count":219,"likes_count":3134}],"more_related_collections":true}