{"q":"vue","page":1,"type":"notebook","total_count":2505,"per_page":10,"total_pages":100,"order_by":"default","entries":[{"id":14911316,"name":"vue","user":{"id":4291575,"slug":"22508dd64b2c","nickname":"tobyDing"},"subscribers_count":0,"public_notes_count":6,"subscribed":false},{"id":15361000,"name":"vue","user":{"id":1826203,"slug":"0ec02b597a36","nickname":"张新望zxw"},"subscribers_count":0,"public_notes_count":1,"subscribed":false},{"id":14421992,"name":"VUE","user":{"id":1958004,"slug":"df6cecb7a4a4","nickname":"Look_a_Look"},"subscribers_count":0,"public_notes_count":8,"subscribed":false},{"id":15156398,"name":"Vue","user":{"id":5818778,"slug":"87e125448ca3","nickname":"当如初见_163a"},"subscribers_count":0,"public_notes_count":1,"subscribed":false},{"id":8815222,"name":"vue","user":{"id":2849574,"slug":"f5772f45bf34","nickname":"kamifun"},"subscribers_count":0,"public_notes_count":2,"subscribed":false},{"id":14862415,"name":"vue","user":{"id":3477993,"slug":"029930268fb6","nickname":"zzj_alpaca"},"subscribers_count":0,"public_notes_count":3,"subscribed":false},{"id":11354570,"name":"vue","user":{"id":1817605,"slug":"d4f69ffff1e4","nickname":"欧阳司空"},"subscribers_count":0,"public_notes_count":1,"subscribed":false},{"id":12984722,"name":"vue","user":{"id":3887784,"slug":"ab35001293fa","nickname":"野薇薇"},"subscribers_count":0,"public_notes_count":2,"subscribed":false},{"id":13785231,"name":"VUE","user":{"id":1924841,"slug":"1b12430f2c17","nickname":"changlinwang"},"subscribers_count":0,"public_notes_count":9,"subscribed":false},{"id":17066196,"name":"Vue","user":{"id":1718385,"slug":"2695cb27e168","nickname":"ppc"},"subscribers_count":0,"public_notes_count":1,"subscribed":false}],"related_users":[],"more_related_users":null,"related_collections":[],"more_related_collections":null}